{
    "xray" : {
                "user" : "8E61009219AC446AB5009CB8A87E38DC",
                "token" : "df9f9d5a8fdc881065736db8e590073fbd8182d6cf2bd14ce47c4f973485a685"
             },
    "jira" : {
                "user" : "mpardal@schreder.com",
                "token" : "Get_from_atlassian_account_settings"
             }
}   